material metia/freezeoverlay1
{
	technique
	{
		pass
		{
			lighting off
			scene_blend alpha_blend

			texture_unit
			{
				texture freezeoverlay1.png
			}
		}
	}
}

material metia/freezeoverlay2
{
	technique
	{
		pass
		{
			lighting off
			scene_blend alpha_blend

			texture_unit
			{
				texture freezeoverlay2.png
			}
		}
	}
}

material metia/freezeoverlay3
{
	technique
	{
		pass
		{
			lighting off
			scene_blend alpha_blend

			texture_unit
			{
				texture freezeoverlay3.png
			}
		}
	}
}

material metia/freezeoverlay4
{
	technique
	{
		pass
		{
			lighting off
			scene_blend alpha_blend

			texture_unit
			{
				texture freezeoverlay4.png
			}
		}
	}
}

material metia/lavaoverlay1
{
	technique
	{
		pass
		{
			lighting off
			scene_blend alpha_blend

			texture_unit
			{
				texture 3_lavascreen_1.png
			}
		}
	}
}

material metia/lavaoverlay2
{
	technique
	{
		pass
		{
			lighting off
			scene_blend alpha_blend

			texture_unit
			{
				texture 3_lavascreen_2.png
			}
		}
	}
}

material metia/lavaoverlay3
{
	technique
	{
		pass
		{
			lighting off
			scene_blend alpha_blend

			texture_unit
			{
				texture 3_lavascreen_3.png
			}
		}
	}
}

material metia/lavaoverlay4
{
	technique
	{
		pass
		{
			lighting off
			scene_blend alpha_blend

			texture_unit
			{
				texture 3_lavascreen_4.png
			}
		}
	}
}

material metia/steamoverlay1
{
	technique
	{
		pass
		{
			lighting off
			scene_blend alpha_blend

			texture_unit
			{
				texture steam1.png
			}
		}
	}
}

material metia/steamoverlay2
{
	technique
	{
		pass
		{
			lighting off
			scene_blend alpha_blend

			texture_unit
			{
				texture steam2.png
			}
		}
	}
}

material metia/steamoverlay3
{
	technique
	{
		pass
		{
			lighting off
			scene_blend alpha_blend

			texture_unit
			{
				texture steam3.png
			}
		}
	}
}

material metia/steamoverlay4
{
	technique
	{
		pass
		{
			lighting off
			scene_blend alpha_blend

			texture_unit
			{
				texture steam4.png
			}
		}
	}
}
