%YAML 1.1
%TAG !u! tag:unity3d.com,2011:
--- !u!21 &2100000
Material:
  serializedVersion: 6
  m_ObjectHideFlags: 0
  m_PrefabParentObject: {fileID: 0}
  m_PrefabInternal: {fileID: 0}
  m_Name: 3_LavaBird
  m_Shader: {fileID: 4800000, guid: 01ae6ec32853b00498f6cd48469841fc, type: 3}
  m_ShaderKeywords: 
  m_LightmapFlags: 5
  m_CustomRenderQueue: -1
  stringTagMap: {}
  m_SavedProperties:
    serializedVersion: 2
    m_TexEnvs:
      data:
        first:
          name: _MainTex
        second:
          m_Texture: {fileID: 2800000, guid: 051de1ebb78de8140b6eb87bd7308c4b, type: 3}
          m_Scale: {x: 1, y: 1}
          m_Offset: {x: 0, y: 0}
      data:
        first:
          name: _PathTex
        second:
          m_Texture: {fileID: 2800000, guid: 4ecef8224a2e2a647821af0b81fe7337, type: 3}
          m_Scale: {x: 1, y: 1}
          m_Offset: {x: 0, y: 0}
    m_Floats:
      data:
        first:
          name: _Cutoff
        second: .135132015
      data:
        first:
          name: _Shininess
        second: .699999988
      data:
        first:
          name: _InvFade
        second: .907999992
      data:
        first:
          name: _Blend
        second: 1
    m_Colors:
      data:
        first:
          name: _Color
        second: {r: .687010348, g: .723880589, b: .394352853, a: .788235307}
      data:
        first:
          name: _SpecColor
        second: {r: 1, g: 1, b: 1, a: 0}
      data:
        first:
          name: _TintColor
        second: {r: .380596995, g: .380596995, b: .380596995, a: .835294127}
      data:
        first:
          name: _Emission
        second: {r: 0, g: 0, b: 0, a: 0}
      data:
        first:
          name: _Default
        second: {r: 1, g: 1, b: 1, a: 1}
