%YAML 1.1
%TAG !u! tag:unity3d.com,2011:
--- !u!21 &2100000
Material:
  serializedVersion: 6
  m_ObjectHideFlags: 0
  m_PrefabParentObject: {fileID: 0}
  m_PrefabInternal: {fileID: 0}
  m_Name: boy_body_1_1
  m_Shader: {fileID: 4800000, guid: 01ae6ec32853b00498f6cd48469841fc, type: 3}
  m_ShaderKeywords: 
  m_LightmapFlags: 5
  m_CustomRenderQueue: -1
  stringTagMap: {}
  m_SavedProperties:
    serializedVersion: 2
    m_TexEnvs:
      data:
        first:
          name: _MainTex
        second:
          m_Texture: {fileID: 2800000, guid: 30b7d7280e44c58439a840ecfa78d7d4, type: 3}
          m_Scale: {x: 1, y: 1}
          m_Offset: {x: 0, y: 0}
      data:
        first:
          name: _PathTex
        second:
          m_Texture: {fileID: 2800000, guid: 2231c6dc079ec9446be4c5220f5bb140, type: 3}
          m_Scale: {x: 1, y: 1}
          m_Offset: {x: 0, y: 0}
    m_Floats:
      data:
        first:
          name: _Blend
        second: 1
    m_Colors:
      data:
        first:
          name: _Color
        second: {r: .0802517161, g: .977611959, b: .334727108, a: 1}
      data:
        first:
          name: _Default
        second: {r: 1, g: 1, b: 1, a: 1}
